{
  "x-powered-by": "Express",
  "set-cookie": "md.sid\u003ds%3Aljm65VuMuuoz39zkykIbyVtv8Re8ZUKU.JOurR%2Fa4pL4kCV9VmSigK1BeAC7fzKQINEhh%2BslbBmA; Path\u003d/; HttpOnly",
  "content-type": "application/json; charset\u003dutf-8",
  "content-length": "33",
  "etag": "W/\"21-XkUN1SVqS1hntdCrTCPK2xUmsoQ\"",
  "date": "Mon, 04 May 2020 08:49:09 GMT",
  "x-envoy-upstream-service-time": "73",
  "server": "envoy"
}