{
  "x-powered-by": "Express",
  "set-cookie": "md.sid\u003ds%3AxNRggmdY6ibbA3bASjMX5fmU7bW3IvBH.lj96VsCk7eGMFybxtdwamgg2UNF8gm9rnplqS5ax7Gs; Path\u003d/; HttpOnly",
  "content-type": "application/json; charset\u003dutf-8",
  "content-length": "33",
  "etag": "W/\"21-ykHWh3wJDJMdcA0iWa7W1lORtRU\"",
  "date": "Mon, 04 May 2020 08:58:32 GMT",
  "x-envoy-upstream-service-time": "60",
  "server": "envoy"
}