{
  "x-powered-by": "Express",
  "set-cookie": "md.sid\u003ds%3Ap5K0r6mq58eHALxiCijrOlG5K0uJki8C.BLhoq%2FQf9Gd%2BtnJb4QxVSmekWzmmmVDcKlvl25PwGG8; Path\u003d/; HttpOnly",
  "content-type": "application/json; charset\u003dutf-8",
  "content-length": "33",
  "etag": "W/\"21-2zupZykygy8O3im+ywY5YshjBw4\"",
  "date": "Mon, 27 Apr 2020 08:58:44 GMT",
  "x-envoy-upstream-service-time": "34",
  "server": "envoy"
}