{
  "x-powered-by": "Express",
  "set-cookie": "md.sid\u003ds%3Ai6-Ytrjh0Wt9aOCBYsjNLxdUtNKjhtd1.fqwHFRkv3HIqK4xTQVBQbwuTZzy8ZtbS7RBcINRZjts; Path\u003d/; HttpOnly",
  "content-type": "application/json; charset\u003dutf-8",
  "content-length": "33",
  "etag": "W/\"21-L19rq898PyaqqyhvXqDRU7O5jw0\"",
  "date": "Mon, 04 May 2020 08:45:32 GMT",
  "x-envoy-upstream-service-time": "56",
  "server": "envoy"
}