{
  "x-powered-by": "Express",
  "set-cookie": "md.sid\u003ds%3AuMULloGfrDXMlfWgs9TMuIR2bk_spede.zj7J%2BBGA83%2BpVaEom4GewdDFBl1c5b%2B5FgJsuhhC4Fk; Path\u003d/; HttpOnly",
  "content-type": "application/json; charset\u003dutf-8",
  "content-length": "33",
  "etag": "W/\"21-u92AsjTM00k5Uko131jrhVmaHmE\"",
  "date": "Sun, 26 Apr 2020 22:06:16 GMT",
  "x-envoy-upstream-service-time": "56",
  "server": "envoy"
}